................
----------------------------------------------------------------------
Ran 16 tests in 0.008s

OK
Name               Stmts   Miss Branch BrPart  Cover   Missing
--------------------------------------------------------------
Diplomacy.py          73      0     46      1    99%   57->35
TestDiplomacy.py      66      0      0      0   100%
--------------------------------------------------------------
TOTAL                139      0     46      1    99%
