............
----------------------------------------------------------------------
Ran 12 tests in 0.002s

OK
Name               Stmts   Miss Branch BrPart  Cover   Missing
--------------------------------------------------------------
Diplomacy.py          82      0     74      3    98%   60->68, 71->70, 132->129
TestDiplomacy.py      63      0      4      1    99%   88->exit
--------------------------------------------------------------
TOTAL                145      0     78      4    98%
